…
####The below code reads and processes the data, as well as prints the first few lines.  
Note, missing values are kept in the data.  
  

```r
data <- read.csv("activity.csv", na.strings = "NA")
data$date <- as.Date(data$date,"%Y-%m-%d")
data_df <- tbl_df(data) %>%
        select(date, interval, steps)
data_df
```

```
## # A tibble: 17,568 x 3
##          date interval steps
##        <date>    <int> <int>
## 1  2012-10-01        0    NA
## 2  2012-10-01        5    NA
## 3  2012-10-01       10    NA
## 4  2012-10-01       15    NA
## 5  2012-10-01       20    NA
## 6  2012-10-01       25    NA
## 7  2012-10-01       30    NA
## 8  2012-10-01       35    NA
## 9  2012-10-01       40    NA
## 10 2012-10-01       45    NA
## # ... with 17,558 more rows
```
…
